<?xml version="1.0" encoding="UTF-8" standalone="no"?>
<!DOCTYPE svg PUBLIC "-//W3C//DTD SVG 1.1//EN"
 "http://www.w3.org/Graphics/SVG/1.1/DTD/svg11.dtd">
<!-- Generated by graphviz version 2.40.1 (20161225.0304)
 -->
<!-- Title: tokenring Pages: 1 -->
<svg width="329pt" height="318pt"
 viewBox="0.00 0.00 328.85 317.71" xmlns="http://www.w3.org/2000/svg" xmlns:xlink="http://www.w3.org/1999/xlink">
<g id="graph0" class="graph" transform="scale(1 1) rotate(0) translate(4 313.7103)">
<title>tokenring</title>
<polygon fill="#ffffff" stroke="transparent" points="-4,4 -4,-313.7103 324.8479,-313.7103 324.8479,4 -4,4"/>
<!-- n0 -->
<g id="node1" class="node">
<title>n0</title>
<ellipse fill="none" stroke="#000000" cx="240.9954" cy="-45.1058" rx="27" ry="18"/>
<text text-anchor="middle" x="240.9954" y="-41.4058" font-family="Times,serif" font-size="14.00" fill="#000000">n0</text>
</g>
<!-- n1 -->
<g id="node2" class="node">
<title>n1</title>
<ellipse fill="none" stroke="#000000" cx="122.2369" cy="-18" rx="27" ry="18"/>
<text text-anchor="middle" x="122.2369" y="-14.3" font-family="Times,serif" font-size="14.00" fill="#000000">n1</text>
</g>
<!-- n0&#45;&gt;n1 -->
<g id="edge1" class="edge">
<title>n0&#45;&gt;n1</title>
<path fill="none" stroke="#000000" d="M215.2265,-39.2243C198.4192,-35.3881 176.2551,-30.3293 157.7815,-26.1128"/>
<polygon fill="#000000" stroke="#000000" points="158.4836,-22.6831 147.9554,-23.8701 156.9259,-29.5076 158.4836,-22.6831"/>
</g>
<!-- n2 -->
<g id="node3" class="node">
<title>n2</title>
<ellipse fill="none" stroke="#000000" cx="27" cy="-93.9489" rx="27" ry="18"/>
<text text-anchor="middle" x="27" y="-90.2489" font-family="Times,serif" font-size="14.00" fill="#000000">n2</text>
</g>
<!-- n1&#45;&gt;n2 -->
<g id="edge2" class="edge">
<title>n1&#45;&gt;n2</title>
<path fill="none" stroke="#000000" d="M104.769,-31.9302C90.1359,-43.5997 69.0498,-60.4153 52.5247,-73.5936"/>
<polygon fill="#000000" stroke="#000000" points="49.9933,-71.1357 44.3572,-80.107 54.3577,-76.6085 49.9933,-71.1357"/>
</g>
<!-- n3 -->
<g id="node4" class="node">
<title>n3</title>
<ellipse fill="none" stroke="#000000" cx="27" cy="-215.7615" rx="27" ry="18"/>
<text text-anchor="middle" x="27" y="-212.0615" font-family="Times,serif" font-size="14.00" fill="#000000">n3</text>
</g>
<!-- n2&#45;&gt;n3 -->
<g id="edge3" class="edge">
<title>n2&#45;&gt;n3</title>
<path fill="none" stroke="#000000" d="M27,-112.1855C27,-132.01 27,-163.955 27,-187.1315"/>
<polygon fill="#000000" stroke="#000000" points="23.5001,-187.4002 27,-197.4002 30.5001,-187.4003 23.5001,-187.4002"/>
</g>
<!-- n4 -->
<g id="node5" class="node">
<title>n4</title>
<ellipse fill="none" stroke="#000000" cx="122.2369" cy="-291.7103" rx="27" ry="18"/>
<text text-anchor="middle" x="122.2369" y="-288.0103" font-family="Times,serif" font-size="14.00" fill="#000000">n4</text>
</g>
<!-- n3&#45;&gt;n4 -->
<g id="edge4" class="edge">
<title>n3&#45;&gt;n4</title>
<path fill="none" stroke="#000000" d="M44.4679,-229.6917C59.101,-241.3611 80.1871,-258.1767 96.7122,-271.3551"/>
<polygon fill="#000000" stroke="#000000" points="94.8792,-274.3699 104.8797,-277.8685 99.2436,-268.8971 94.8792,-274.3699"/>
<text text-anchor="middle" x="55.0901" y="-254.3234" font-family="Times,serif" font-size="14.00" fill="#000000">token</text>
</g>
<!-- n5 -->
<g id="node6" class="node">
<title>n5</title>
<ellipse fill="none" stroke="#000000" cx="240.9954" cy="-264.6045" rx="27" ry="18"/>
<text text-anchor="middle" x="240.9954" y="-260.9045" font-family="Times,serif" font-size="14.00" fill="#000000">n5</text>
</g>
<!-- n4&#45;&gt;n5 -->
<g id="edge5" class="edge">
<title>n4&#45;&gt;n5</title>
<path fill="none" stroke="#000000" d="M148.0057,-285.8288C164.813,-281.9926 186.9771,-276.9338 205.4508,-272.7173"/>
<polygon fill="#000000" stroke="#000000" points="206.3064,-276.1121 215.2768,-270.4746 204.7487,-269.2876 206.3064,-276.1121"/>
</g>
<!-- n6 -->
<g id="node7" class="node">
<title>n6</title>
<ellipse fill="none" stroke="#000000" cx="293.8479" cy="-154.8552" rx="27" ry="18"/>
<text text-anchor="middle" x="293.8479" y="-151.1552" font-family="Times,serif" font-size="14.00" fill="#000000">n6</text>
</g>
<!-- n5&#45;&gt;n6 -->
<g id="edge6" class="edge">
<title>n5&#45;&gt;n6</title>
<path fill="none" stroke="#000000" d="M249.2536,-247.4562C257.7751,-229.761 271.1819,-201.9216 281.0722,-181.3842"/>
<polygon fill="#000000" stroke="#000000" points="284.2877,-182.7736 285.4732,-172.2453 277.9809,-179.7364 284.2877,-182.7736"/>
</g>
<!-- n6&#45;&gt;n0 -->
<g id="edge7" class="edge">
<title>n6&#45;&gt;n0</title>
<path fill="none" stroke="#000000" d="M285.5897,-137.7068C277.0681,-120.0116 263.6614,-92.1722 253.771,-71.6348"/>
<polygon fill="#000000" stroke="#000000" points="256.8623,-69.987 249.37,-62.496 250.5555,-73.0243 256.8623,-69.987"/>
</g>
</g>
</svg>
